<?xml version="1.0" encoding="UTF-8"?>
<!-- Generator: Adobe Illustrator 15.1.0, SVG Export Plug-In . SVG Version: 6.00 Build 0)  -->
<!DOCTYPE svg PUBLIC "-//W3C//DTD SVG 1.1//EN" "http://www.w3.org/Graphics/SVG/1.1/DTD/svg11.dtd">
<svg version="1.1" id="Capa_1" xmlns="http://www.w3.org/2000/svg" xmlns:xlink="http://www.w3.org/1999/xlink" x="0px" y="0px" width="530px" height="153px" viewBox="0 0 530 153" enable-background="new 0 0 530 153" xml:space="preserve">
<g>
	<g>
		<defs>
			<path id="SVGID_1_" d="M39.781,26.88c-14.73,3.977-18.206,9.549-22.507,22.518l0.368,83.932l80.36-0.358     c22.895-6.151,22.577-22.167,22.577-22.167l-0.375-84.284L39.781,26.88z"/>
		</defs>
		<clipPath id="SVGID_2_">
			<use xlink:href="#SVGID_1_" overflow="visible"/>
		</clipPath>
		
			<linearGradient id="SVGID_3_" gradientUnits="userSpaceOnUse" x1="-57.7173" y1="479.377" x2="-55.522" y2="479.377" gradientTransform="matrix(-47.0501 0.207 0.207 47.0502 -2694.2925 -22463.1523)">
			<stop offset="0" style="stop-color:#DDB864"/>
			<stop offset="0.58" style="stop-color:#DDB864"/>
			<stop offset="0.6065" style="stop-color:#E0BD70"/>
			<stop offset="0.6554" style="stop-color:#E6CB8F"/>
			<stop offset="0.7211" style="stop-color:#F1E1C0"/>
			<stop offset="0.8" style="stop-color:#FFFFFF"/>
			<stop offset="0.856" style="stop-color:#F4E8CF"/>
			<stop offset="0.9242" style="stop-color:#E8CE97"/>
			<stop offset="0.9741" style="stop-color:#E0BE72"/>
			<stop offset="1" style="stop-color:#DDB864"/>
		</linearGradient>
		<polygon clip-path="url(#SVGID_2_)" fill="url(#SVGID_3_)" points="121.366,133.33 17.274,133.788 16.803,26.521 120.895,26.064       "/>
	</g>
	<path fill-rule="evenodd" clip-rule="evenodd" d="M108.625,80.19c1.083,51.576,6.593,39.635-78.219,42.261   c2.856-27.949,52.78,3.591,67.196-37.42C101.317,83.388,104.979,81.778,108.625,80.19"/>
	<path fill-rule="evenodd" clip-rule="evenodd" d="M29.424,79.474c-1.088-51.583-6.588-39.645,78.223-42.268   c-2.877,27.964-52.778-3.592-67.2,37.424C36.737,76.274,33.078,77.877,29.424,79.474"/>
	<path fill-rule="evenodd" clip-rule="evenodd" d="M54.892,73.819c25.02-1.621,55.359,7.348,53.472-18.645   C83.629,69.495,58.589,53.569,54.892,73.819"/>
	<path fill-rule="evenodd" clip-rule="evenodd" d="M84.939,85.725c-25.034,1.61-55.357-7.355-53.475,18.644   C56.203,90.036,81.237,105.963,84.939,85.725"/>
	<polygon fill-rule="evenodd" clip-rule="evenodd" points="143.34,90.626 144.722,90.615 144.774,102.688 143.393,102.692  "/>
	<polygon fill-rule="evenodd" clip-rule="evenodd" points="155.901,90.568 157.679,90.558 162.706,100.735 162.743,100.735    162.697,90.541 164.009,90.535 164.062,102.603 162.304,102.608 157.253,92.448 157.23,92.448 157.271,102.631 155.948,102.64  "/>
	<polygon fill-rule="evenodd" clip-rule="evenodd" points="175.084,90.484 180.964,90.459 180.971,91.574 176.458,91.592    176.479,95.649 180.786,95.632 180.786,96.766 176.479,96.781 176.505,102.542 175.14,102.554  "/>
	<path fill-rule="evenodd" clip-rule="evenodd" d="M190.094,96.428c-0.012-3.063,0.827-6.223,4.308-6.242   c3.475-0.015,4.33,3.141,4.343,6.206c0.018,3.059-0.815,6.252-4.285,6.268C190.98,102.678,190.112,99.488,190.094,96.428    M194.453,101.519c2.423-0.013,2.81-2.963,2.801-5.138c-0.011-2.186-0.422-5.072-2.843-5.062c-2.444,0.009-2.825,2.904-2.808,5.091   C191.612,98.582,192.003,101.53,194.453,101.519"/>
	<path fill-rule="evenodd" clip-rule="evenodd" d="M209.205,90.336l3.009-0.018c0.818-0.005,3.875,0.082,3.884,3.017   c0.009,2.176-1.329,2.769-2.448,3.038v0.032c1.667,0.438,1.832,1.328,2.095,2.642l0.726,3.322l-1.371,0.006l-0.603-2.78   c-0.386-1.748-0.759-2.584-2.614-2.573l-1.277,0.002l0.024,5.367l-1.371,0.007L209.205,90.336z M210.601,95.887h0.75   c1.66-0.012,3.375-0.386,3.369-2.403c-0.016-2.059-1.654-2.054-3.119-2.046h-1.022L210.601,95.887z"/>
	<polygon fill-rule="evenodd" clip-rule="evenodd" points="226.748,90.251 228.805,90.25 232.299,100.501 232.336,100.501    235.735,90.214 237.78,90.203 237.83,102.272 236.604,102.28 236.556,91.641 236.516,91.641 232.989,102.295 231.652,102.297    228.021,91.676 227.969,91.676 228.021,102.317 226.796,102.321  "/>
	<path fill-rule="evenodd" clip-rule="evenodd" d="M251.38,90.148l1.673-0.011l3.971,12.051l-1.362,0.008l-1.229-3.725l-4.348,0.015   l-1.149,3.736l-1.371,0.013L251.38,90.148z M250.457,97.348l3.593-0.013l-1.799-5.966h-0.038L250.457,97.348z"/>
	<path fill-rule="evenodd" clip-rule="evenodd" d="M274.053,101.589c-0.503,0.213-1.404,0.729-3.214,0.732   c-3.677,0.018-4.684-3.498-4.692-6.446c-0.018-3.106,1.065-6.006,4.553-6.027c2.429-0.009,3.78,1.515,3.789,3.475l-1.562,0.004   c-0.009-1.349-0.803-2.351-2.22-2.347c-2.574,0.011-3.074,2.657-3.065,4.96c0.009,2.021,0.535,5.254,3.527,5.242   c1.543-0.012,2.526-0.727,2.877-1.004L274.053,101.589z"/>
	
		<rect x="284.372" y="89.995" transform="matrix(-1 0.0067 -0.0067 -1 570.7633 190.1441)" fill-rule="evenodd" clip-rule="evenodd" width="1.382" height="12.07"/>
	<path fill-rule="evenodd" clip-rule="evenodd" d="M296.338,95.961c-0.013-3.064,0.815-6.229,4.299-6.24   c3.461-0.021,4.325,3.14,4.336,6.203c0.016,3.054-0.813,6.249-4.283,6.264C297.211,102.206,296.355,99.017,296.338,95.961    M300.685,101.048c2.436-0.007,2.803-2.961,2.79-5.137c-0.005-2.187-0.399-5.077-2.834-5.066c-2.448,0.011-2.807,2.904-2.796,5.089   C297.852,98.11,298.241,101.059,300.685,101.048 M300.803,86.113l1.545-0.011l-1.17,2.353l-1.111,0.006L300.803,86.113z"/>
	<polygon fill-rule="evenodd" clip-rule="evenodd" points="315.432,89.863 317.195,89.854 322.244,100.03 322.281,100.03    322.235,89.828 323.536,89.828 323.585,101.892 321.811,101.905 316.773,91.74 316.755,91.74 316.796,101.92 315.493,101.928  "/>
	<path fill-rule="evenodd" clip-rule="evenodd" d="M367.249,101.178c-0.502,0.207-1.399,0.728-3.207,0.731   c-3.684,0.019-4.691-3.498-4.698-6.445c-0.017-3.106,1.062-6.017,4.55-6.028c2.425-0.011,3.771,1.518,3.781,3.474l-1.542,0.005   c-0.003-1.345-0.812-2.356-2.239-2.354c-2.575,0.018-3.075,2.657-3.063,4.967c0.015,2.019,0.537,5.253,3.526,5.234   c1.537-0.004,2.52-0.726,2.879-0.993L367.249,101.178z"/>
	<path fill-rule="evenodd" clip-rule="evenodd" d="M377.46,89.586l3.005-0.011c0.834-0.006,3.866,0.086,3.887,3.018   c0.004,2.173-1.327,2.76-2.45,3.039v0.028c1.666,0.435,1.839,1.332,2.112,2.642l0.716,3.318l-1.376,0.006l-0.607-2.78   c-0.391-1.741-0.762-2.581-2.623-2.57l-1.266,0.002l0.022,5.375l-1.371,0.002L377.46,89.586z M378.851,95.141l0.764-0.002   c1.654-0.012,3.375-0.383,3.364-2.403c-0.009-2.056-1.657-2.05-3.119-2.048l-1.028,0.011L378.851,95.141z"/>
	<polygon fill-rule="evenodd" clip-rule="evenodd" points="394.992,89.507 400.879,89.479 400.884,90.6 396.378,90.615    396.39,94.676 400.687,94.655 400.691,95.79 396.396,95.812 396.419,100.425 401.076,100.4 401.081,101.547 395.048,101.578  "/>
	<path fill-rule="evenodd" clip-rule="evenodd" d="M411.235,89.436l2.729-0.011c3.641-0.015,4.996,2.123,5.01,5.973   c0.024,5.358-2.526,6.084-5.391,6.097l-2.3,0.003L411.235,89.436z M412.662,100.351h0.926c2.355-0.016,3.908-0.712,3.895-4.932   c-0.021-4.367-1.715-4.889-4.098-4.878l-0.766,0.005L412.662,100.351z"/>
	<polygon fill-rule="evenodd" clip-rule="evenodd" points="429.523,89.356 430.892,89.347 430.944,101.417 429.575,101.421  "/>
	<polygon fill-rule="evenodd" clip-rule="evenodd" points="443.494,90.412 440.595,90.42 440.592,89.308 447.766,89.275    447.772,90.389 444.866,90.4 444.915,101.353 443.542,101.363  "/>
	<polygon fill-rule="evenodd" clip-rule="evenodd" points="457.421,89.231 458.794,89.226 458.842,101.291 457.476,101.3  "/>
	<path fill-rule="evenodd" clip-rule="evenodd" d="M477.322,100.687c-0.519,0.21-1.413,0.723-3.225,0.734   c-3.662,0.013-4.675-3.494-4.688-6.447c-0.013-3.111,1.072-6.013,4.557-6.025c2.421-0.011,3.764,1.51,3.776,3.471l-1.557,0.006   c-0.007-1.345-0.789-2.357-2.216-2.342c-2.578,0.005-3.069,2.649-3.059,4.959c0.006,2.017,0.529,5.248,3.524,5.232   c1.528-0.011,2.502-0.722,2.879-1.002L477.322,100.687z"/>
	<polygon fill-rule="evenodd" clip-rule="evenodd" points="487.612,89.093 488.986,89.091 489.035,101.155 487.663,101.166  "/>
	<path fill-rule="evenodd" clip-rule="evenodd" d="M502.711,89.034l1.667-0.011l3.987,12.052l-1.372,0.006l-1.237-3.73l-4.33,0.018   l-1.158,3.742l-1.368,0.002L502.711,89.034z M501.795,96.23l3.592-0.013l-1.812-5.962h-0.035L501.795,96.23z"/>
	<path fill-rule="evenodd" clip-rule="evenodd" d="M142.293,119.501c-0.011-2.657-0.021-5.185,3.457-5.2   c3.472-0.018,3.485,2.51,3.494,5.166c0.011,2.624,0.024,5.178-3.452,5.186C142.313,124.668,142.303,122.12,142.293,119.501    M147.112,119.478c-0.009-2.562-0.167-3.673-1.355-3.666c-1.185,0.003-1.335,1.114-1.325,3.682   c0.009,2.571,0.171,3.678,1.356,3.673C146.976,123.163,147.125,122.05,147.112,119.478"/>
	<polygon fill-rule="evenodd" clip-rule="evenodd" points="166.961,114.375 166.965,116.047 164.625,116.054 164.662,124.42    162.556,124.422 162.518,116.059 160.17,116.069 160.168,114.402  "/>
	<path fill-rule="evenodd" clip-rule="evenodd" d="M180.104,124.347l-2.12,0.012l-0.036-10.031l3.895-0.015   c1.446-0.012,2.365,0.903,2.369,2.613c0.009,1.28-0.483,2.235-1.859,2.47v0.022c0.471,0.055,1.833,0.166,1.838,1.979   c0,0.622,0.052,2.513,0.258,2.928l-2.075,0.008c-0.28-0.593-0.232-1.294-0.236-1.934c-0.005-1.202,0.101-2.225-1.509-2.214h-0.544   L180.104,124.347z M180.076,118.664l0.925-0.007c0.842,0,1.078-0.841,1.078-1.49c-0.005-0.956-0.397-1.302-1.086-1.302   l-0.923,0.002L180.076,118.664z"/>
	<path fill-rule="evenodd" clip-rule="evenodd" d="M195.738,119.263c-0.015-2.658-0.02-5.186,3.448-5.203   c3.472-0.013,3.489,2.516,3.498,5.166c0.014,2.627,0.018,5.178-3.45,5.194C195.755,124.434,195.749,121.89,195.738,119.263    M200.552,119.242c-0.008-2.568-0.162-3.679-1.355-3.672c-1.192,0.005-1.333,1.114-1.324,3.682   c0.004,2.572,0.167,3.682,1.355,3.678C200.425,122.922,200.563,121.817,200.552,119.242"/>
	<path fill-rule="evenodd" clip-rule="evenodd" d="M227.62,124.133l-0.043-10.031l3.737-0.011c1.605-0.005,2.935,0.444,2.952,2.583   c0,1.158-0.567,1.99-1.71,2.22v0.038c1.505,0.192,1.899,1.148,1.899,2.518c0.013,2.539-2.219,2.664-3.092,2.668L227.62,124.133z    M229.698,118.203l1.417-0.007c0.445,0,1.094-0.323,1.088-1.285c-0.007-0.742-0.499-1.269-1.208-1.269l-1.308,0.008   L229.698,118.203z M229.717,122.591l1.178-0.004c0.454,0,1.452-0.018,1.445-1.433c-0.004-0.891-0.347-1.428-1.413-1.426   l-1.223,0.006L229.717,122.591z"/>
	<polygon fill-rule="evenodd" clip-rule="evenodd" points="246.18,124.048 246.135,114.026 251.63,114 251.634,115.553    248.254,115.563 248.264,118.041 251.382,118.029 251.389,119.569 248.268,119.577 248.274,122.512 251.772,122.499    251.779,124.028  "/>
	<polygon fill-rule="evenodd" clip-rule="evenodd" points="263.229,123.98 263.181,113.952 266.031,113.936 268.744,120.875    268.769,120.875 268.734,113.92 270.709,113.917 270.753,123.947 267.974,123.958 265.198,116.632 265.169,116.632    265.203,123.971  "/>
	<polygon fill-rule="evenodd" clip-rule="evenodd" points="282.582,123.887 282.538,113.864 288.038,113.838 288.042,115.393    284.65,115.403 284.661,117.873 287.791,117.865 287.797,119.406 284.665,119.418 284.679,122.35 288.192,122.332 288.201,123.866     "/>
	<polygon fill-rule="evenodd" clip-rule="evenodd" points="299.572,123.817 299.531,113.785 304.765,113.763 304.769,115.318    301.638,115.329 301.651,117.905 304.641,117.896 304.646,119.418 301.654,119.429 301.676,123.81  "/>
	<polygon fill-rule="evenodd" clip-rule="evenodd" points="315.857,123.745 315.809,113.716 317.937,113.704 317.979,123.739  "/>
	<path fill-rule="evenodd" clip-rule="evenodd" d="M329.672,118.666c-0.011-2.656-0.021-5.186,3.469-5.191   c2.136-0.012,3.022,1.169,2.947,3.318l-2.074,0.011c-0.003-1.329-0.237-1.824-0.869-1.822c-1.185,0.004-1.338,1.113-1.329,3.683   c0.012,2.574,0.178,3.676,1.362,3.676c0.969-0.008,0.927-1.271,0.953-2.049l2.075-0.009c0.013,2.685-1.062,3.535-3.022,3.546   C329.698,123.834,329.688,121.289,329.672,118.666"/>
	<polygon fill-rule="evenodd" clip-rule="evenodd" points="347.619,123.606 347.576,113.57 349.699,113.566 349.737,123.593  "/>
	<path fill-rule="evenodd" clip-rule="evenodd" d="M361.431,118.525c-0.007-2.658-0.022-5.185,3.459-5.189   c3.469-0.021,3.481,2.507,3.495,5.165c0.014,2.62,0.021,5.169-3.457,5.179C361.45,123.701,361.44,121.147,361.431,118.525    M366.248,118.501c-0.013-2.562-0.171-3.665-1.354-3.663c-1.181,0-1.334,1.119-1.325,3.685c0.009,2.573,0.176,3.671,1.359,3.669   C366.112,122.191,366.257,121.076,366.248,118.501"/>
	<polygon fill-rule="evenodd" clip-rule="evenodd" points="393.243,123.4 393.198,113.374 398.449,113.348 398.456,114.9    395.326,114.913 395.338,117.494 398.318,117.479 398.331,119.004 395.348,119.018 395.361,123.395  "/>
	<polygon fill-rule="evenodd" clip-rule="evenodd" points="409.55,123.33 409.508,113.299 414.999,113.271 415.01,114.825    411.618,114.838 411.628,117.317 414.758,117.302 414.758,118.846 411.636,118.856 411.65,121.786 415.162,121.773    415.167,123.304  "/>
	<polygon fill-rule="evenodd" clip-rule="evenodd" points="426.601,123.251 426.554,113.224 429.404,113.217 432.121,120.154    432.138,120.154 432.111,113.195 434.075,113.19 434.124,123.219 431.351,123.234 428.566,115.908 428.533,115.908    428.566,123.245  "/>
	<path fill-rule="evenodd" clip-rule="evenodd" d="M445.191,123.171l2.732-10.043l2.79-0.016l2.78,10.022l-2.214,0.008l-0.58-2.214   l-2.886,0.018l-0.544,2.217L445.191,123.171z M449.212,115.053h-0.037l-0.927,4.354l2.002-0.004L449.212,115.053z"/>
	<polygon fill-rule="evenodd" clip-rule="evenodd" points="464.544,123.089 464.491,113.058 466.612,113.047 466.646,121.411    469.802,121.401 469.808,123.067  "/>
	<path fill-rule="evenodd" clip-rule="evenodd" d="M480.664,117.998c-0.009-2.653-0.022-5.182,3.452-5.194   c2.158-0.014,3.026,1.163,2.952,3.317l-2.062,0.016c-0.002-1.338-0.247-1.831-0.889-1.824c-1.18,0.004-1.327,1.115-1.31,3.678   c0.005,2.575,0.159,3.686,1.343,3.684c0.991-0.016,0.939-1.276,0.956-2.057l2.088-0.011c0.01,2.688-1.061,3.536-3.03,3.553   C480.69,123.171,480.676,120.624,480.664,117.998"/>
	<path fill-rule="evenodd" clip-rule="evenodd" d="M498.496,117.918c-0.018-2.654-0.035-5.183,3.448-5.199   c3.478-0.011,3.491,2.515,3.5,5.173c0.013,2.625,0.022,5.164-3.453,5.182C498.51,123.092,498.5,120.543,498.496,117.918    M503.312,117.902c-0.009-2.57-0.18-3.684-1.36-3.672c-1.184,0.004-1.329,1.114-1.315,3.677c0.008,2.571,0.162,3.687,1.351,3.676   C503.168,121.583,503.321,120.477,503.312,117.902"/>
	<polygon fill-rule="evenodd" clip-rule="evenodd" points="365.218,29.144 377.521,18.439 372.745,13.013 360.452,23.703  "/>
	<path fill-rule="evenodd" clip-rule="evenodd" d="M141.969,37.482l28.626-0.125l5.99,6.134l0.071,16.599l-5.931,6.186   l-22.068,0.096l0.074,16.727l-6.562,0.025L141.969,37.482z M170.027,43.52l-21.469,0.09l0.07,16.607l21.465-0.097L170.027,43.52z"/>
	<path fill-rule="evenodd" clip-rule="evenodd" d="M141.969,37.482v1.02l28.203-0.12l5.396,5.522l0.07,15.785l-5.348,5.573   l-22.665,0.1l0.07,16.721l-4.518,0.022L142.98,37.48L141.969,37.482v1.02V37.482l-1.026,0.009l0.208,46.662l8.602-0.038   l-0.08-16.732l21.505-0.097l6.514-6.791l-0.077-17.416l-6.593-6.731l-30.082,0.134l0.002,1.009L141.969,37.482z M170.027,43.52   h-1.024H170.027v1.021l-20.45,0.082l0.066,14.564l19.43-0.086l-0.07-15.582H170.027l-0.009-1.02l1.018-0.01l0.079,18.644   l-23.507,0.104l-0.083-18.633l22.493-0.104L170.027,43.52z"/>
	<path fill-rule="evenodd" clip-rule="evenodd" d="M181.437,37.303l29.276-0.123l5.959,5.788l0.059,12.873l-4.941,3.529l4.979,3.881   l0.079,19.546l-6.562,0.025l-0.088-19.961l-22.077,0.098l0.087,19.961l-6.568,0.037L181.437,37.303z M210.112,43.345l-22.074,0.095   l0.055,13.369l22.075-0.096L210.112,43.345z"/>
	<path fill-rule="evenodd" clip-rule="evenodd" d="M181.437,37.303l0.008,1.024l28.854-0.124l5.349,5.192l0.055,11.934l-5.61,4.011   l5.648,4.41l0.074,18.032l-4.518,0.015l-0.088-19.956l-24.108,0.102l0.086,19.964l-4.532,0.022l-0.201-44.627H181.437l0.008,1.024   L181.437,37.303l-1.018,0.007l0.202,46.664l8.606-0.037l-0.087-19.974l20.046-0.084l0.092,19.973l8.598-0.038l-0.097-21.055   l-4.294-3.351l4.264-3.054l-0.057-13.824l-6.554-6.358l-30.718,0.133v1.003L181.437,37.303z M210.112,43.345h-1.017H210.112   l0.007,1.011l-21.068,0.097l0.048,11.338l20.05-0.085l-0.055-12.361H210.112l-0.006-1.026l1.02-0.005l0.064,15.408l-24.108,0.106   l-0.065-15.402l23.09-0.107L210.112,43.345z"/>
	<path fill-rule="evenodd" clip-rule="evenodd" d="M229.16,37.094l23.13-0.096l6.271,6.187l0.146,33.314l-6.163,6.137l-23.241,0.105   l-6.212-6.082l-0.149-33.315L229.16,37.094z M252,43.152l-22.498,0.098l0.154,33.339l22.494-0.101L252,43.152z"/>
	<path fill-rule="evenodd" clip-rule="evenodd" d="M229.16,37.094v1.029l22.7-0.101l5.679,5.595l0.146,32.46l-5.563,5.54   l-22.397,0.103l-5.614-5.495l-0.149-32.462l5.928-5.956L229.16,37.094v1.029V37.094l-0.715-0.702l-6.53,6.538l0.158,34.142   l6.819,6.689l24.077-0.108l6.762-6.752l-0.157-34.135l-6.868-6.781l-23.974,0.111l-0.287,0.296L229.16,37.094z M252,43.152   l-1.02,0.011L252,43.152l0.005,1.018l-21.472,0.1l0.136,31.302l20.457-0.085l-0.145-32.323L252,43.152v-1.02h1.012l0.157,35.38   l-24.534,0.101l-0.163-35.375L252,42.133V43.152z"/>
	<polygon fill-rule="evenodd" clip-rule="evenodd" points="271.236,36.906 293.986,36.807 300.097,42.941 271.388,43.069    271.537,76.403 300.654,76.28 294.57,82.452 271.44,82.556 264.983,76.39 264.833,43.154  "/>
	<polygon fill-rule="evenodd" clip-rule="evenodd" points="271.236,36.906 271.244,37.93 293.557,37.836 297.651,41.932    270.368,42.051 270.528,77.432 298.215,77.311 294.132,81.435 271.866,81.533 265.992,75.971 265.846,43.582 271.954,37.64    271.236,36.906 271.244,37.93 271.236,36.906 270.528,36.188 263.804,42.737 263.959,76.842 271.037,83.573 294.986,83.465    303.092,75.256 272.555,75.39 272.414,44.082 302.54,43.946 294.408,35.8 270.817,35.903 270.528,36.188  "/>
	<path fill-rule="evenodd" clip-rule="evenodd" d="M303.509,36.768l29.275-0.123l5.962,5.781l0.057,12.873l-4.935,3.533l4.968,3.879   l0.085,19.544l-6.562,0.029l-0.086-19.965l-22.077,0.103l0.086,19.962l-6.57,0.027L303.509,36.768z M332.186,42.799l-22.075,0.099   l0.06,13.374l22.07-0.094L332.186,42.799z"/>
	<path fill-rule="evenodd" clip-rule="evenodd" d="M303.509,36.768v1.018l28.872-0.121l5.341,5.192l0.05,11.929l-5.601,4.014   l5.645,4.408l0.077,18.035l-4.517,0.017l-0.092-19.962l-24.111,0.11l0.088,19.965l-4.532,0.022l-0.197-44.632L303.509,36.768v1.018   V36.768H302.5l0.204,46.667l8.602-0.038l-0.092-19.974l20.044-0.091l0.093,19.973l8.588-0.033l-0.087-21.055l-4.285-3.355   l4.25-3.051l-0.06-13.824l-6.553-6.358l-30.708,0.138l0.004,1H303.509z M332.186,42.799l-1.02,0.002L332.186,42.799v1.017   l-21.05,0.088l0.048,11.35l20.037-0.088l-0.055-12.365L332.186,42.799l-0.006-1.022l1.018-0.004l0.069,15.407l-24.12,0.109   l-0.063-15.41l23.097-0.103L332.186,42.799z"/>
	<polygon fill-rule="evenodd" clip-rule="evenodd" points="345.406,36.581 377.601,36.441 371.539,42.628 352.004,42.713    352.057,55.789 374.64,55.69 368.515,61.873 352.085,61.95 352.147,76.05 377.776,75.931 371.71,82.105 345.606,82.222  "/>
	<polygon fill-rule="evenodd" clip-rule="evenodd" points="345.406,36.581 345.406,37.601 375.153,37.474 371.104,41.608    350.969,41.695 351.033,56.82 372.187,56.724 368.087,60.851 351.055,60.93 351.128,77.079 375.337,76.968 371.28,81.092    346.624,81.205 346.424,36.574 345.406,36.581 345.406,37.601 345.406,36.581 344.387,36.585 344.593,83.253 372.138,83.127    380.197,74.909 353.155,75.028 353.103,62.961 368.948,62.893 377.079,54.67 353.062,54.778 353.015,43.729 371.966,43.643    380.027,35.428 344.387,35.583 344.387,36.585  "/>
	<path fill-rule="evenodd" clip-rule="evenodd" d="M381.299,36.423l28.766-0.128l6.474,6.191l0.145,33.234l-6.409,6.211   L381.5,82.062L381.299,36.423z M387.878,42.555l0.149,33.331l22.085-0.097l-0.151-33.337L387.878,42.555z"/>
	<path fill-rule="evenodd" clip-rule="evenodd" d="M381.299,36.423l0.004,1.02l28.35-0.12l5.86,5.597l0.139,32.387l-5.808,5.615   l-27.331,0.122l-0.198-44.625L381.299,36.423l0.004,1.02L381.299,36.423h-1.021l0.21,46.667l30.197-0.134l7.017-6.794   l-0.146-34.111l-7.083-6.765l-30.195,0.134v1.002H381.299z M387.878,42.555v1.013V42.555l1.021-0.006l0.146,32.321l20.037-0.081   l-0.139-31.313l-21.065,0.092V42.555h-1.013l-0.007-1.019l24.116-0.106l0.161,35.379l-24.117,0.103l-0.153-34.357H387.878z"/>
	<polygon fill-rule="evenodd" clip-rule="evenodd" points="424.088,36.228 430.637,36.207 430.84,81.842 424.292,81.868  "/>
	<polygon fill-rule="evenodd" clip-rule="evenodd" points="424.088,36.228 424.092,37.255 429.619,37.228 429.812,80.835    425.289,80.855 425.093,36.228 424.088,36.228 424.092,37.255 424.088,36.228 423.06,36.239 423.268,82.904 431.868,82.866    431.655,35.191 423.06,35.232 423.06,36.239  "/>
	<polygon fill-rule="evenodd" clip-rule="evenodd" points="438.821,36.167 471.128,36.023 464.893,42.208 455.154,42.255    455.337,81.74 448.772,81.767 448.596,42.281 432.701,42.352  "/>
	<polygon fill-rule="evenodd" clip-rule="evenodd" points="438.821,36.167 438.826,37.191 468.651,37.058 464.474,41.191    454.131,41.242 454.309,80.728 449.789,80.743 449.613,41.257 435.146,41.323 439.555,36.879 438.821,36.167 438.826,37.191    438.821,36.167 438.103,35.465 430.251,43.38 447.578,43.305 447.753,82.797 456.361,82.752 456.179,43.268 465.318,43.226    473.596,35.006 438.386,35.165 438.103,35.465  "/>
	<path fill-rule="evenodd" clip-rule="evenodd" d="M477.983,35.996l23.122-0.108l6.273,6.196l0.14,33.316l-6.154,6.132   l-23.239,0.105l-6.212-6.082l-0.145-33.317L477.983,35.996z M500.82,42.051l-22.498,0.096l0.148,33.341l22.499-0.099L500.82,42.051   z"/>
	<path fill-rule="evenodd" clip-rule="evenodd" d="M477.983,35.996v1.024l22.697-0.104l5.681,5.595l0.145,32.46l-5.558,5.544   l-22.412,0.099l-5.605-5.491l-0.148-32.459l5.924-5.962L477.983,35.996v1.024V35.996l-0.724-0.709l-6.516,6.539l0.151,34.144   l6.804,6.694l24.083-0.107l6.758-6.753l-0.147-34.142l-6.87-6.779l-23.973,0.111l-0.29,0.294L477.983,35.996z M500.82,42.051   l-1.021,0.004L500.82,42.051l0.009,1.015l-21.483,0.106l0.139,31.302l20.455-0.091l-0.141-32.328L500.82,42.051l-0.004-1.018h1.019   l0.156,35.375l-24.538,0.109l-0.159-35.383l23.522-0.101L500.82,42.051z"/>
	<rect x="140.991" y="107.73" fill-rule="evenodd" clip-rule="evenodd" width="371.249" height="1.923"/>
</g>
</svg>